…
Load the LIDAR

``` r
data("lidar")
```

Look at the data

``` r
lidar 
```

    ## # A tibble: 221 × 2
    ##    range logratio
    ##    <dbl>    <dbl>
    ##  1   390  -0.0504
    ##  2   391  -0.0601
    ##  3   393  -0.0419
    ##  4   394  -0.0510
    ##  5   396  -0.0599
    ##  6   397  -0.0284
    ##  7   399  -0.0596
    ##  8   400  -0.0399
    ##  9   402  -0.0294
    ## 10   403  -0.0395
    ## # ℹ 211 more rows
…
Did this work? Yes!

``` r
# third training/testing split
cv_df |> pull(train) |> nth(3)
```

    ## # A tibble: 176 × 3
    ##    range logratio    id
    ##    <dbl>    <dbl> <int>
    ##  1   391  -0.0601     2
    ##  2   393  -0.0419     3
    ##  3   394  -0.0510     4
    ##  4   396  -0.0599     5
    ##  5   399  -0.0596     7
    ##  6   400  -0.0399     8
    ##  7   402  -0.0294     9
    ##  8   403  -0.0395    10
    ##  9   405  -0.0476    11
    ## 10   406  -0.0604    12
    ## # ℹ 166 more rows
…
``` r
lidar_lm = function(df) {
  
  lm(logratio ~ range, data = df)
  
}

cv_df |>
  mutate(
    linear_fits = map(train, lidar_lm)
  )
```

    ## # A tibble: 100 × 4
    ##    train              test              .id   linear_fits
    ##    <list>             <list>            <chr> <list>     
    ##  1 <tibble [176 × 3]> <tibble [45 × 3]> 001   <lm>       
    ##  2 <tibble [176 × 3]> <tibble [45 × 3]> 002   <lm>       
    ##  3 <tibble [176 × 3]> <tibble [45 × 3]> 003   <lm>       
    ##  4 <tibble [176 × 3]> <tibble [45 × 3]> 004   <lm>       
    ##  5 <tibble [176 × 3]> <tibble [45 × 3]> 005   <lm>       
    ##  6 <tibble [176 × 3]> <tibble [45 × 3]> 006   <lm>       
    ##  7 <tibble [176 × 3]> <tibble [45 × 3]> 007   <lm>       
    ##  8 <tibble [176 × 3]> <tibble [45 × 3]> 008   <lm>       
    ##  9 <tibble [176 × 3]> <tibble [45 × 3]> 009   <lm>       
    ## 10 <tibble [176 × 3]> <tibble [45 × 3]> 010   <lm>       
    ## # ℹ 90 more rows
…
